<?xml version="1.0" encoding="utf-8"?>
<!-- Generator: Adobe Illustrator 16.0.0, SVG Export Plug-In . SVG Version: 6.00 Build 0)  -->
<!DOCTYPE svg PUBLIC "-//W3C//DTD SVG 1.1//EN" "http://www.w3.org/Graphics/SVG/1.1/DTD/svg11.dtd">
<svg version="1.1" id="Layer_1" xmlns="http://www.w3.org/2000/svg" xmlns:xlink="http://www.w3.org/1999/xlink" x="0px" y="0px"
	 width="6.919px" height="4.359px" viewBox="0 0 6.919 4.359" enable-background="new 0 0 6.919 4.359" xml:space="preserve">
<g>
	<path clip-path="url(#SVGID_2_)" d="M1.536,0.264c-0.351-0.352-0.921-0.352-1.272,0C0.088,0.439,0,0.669,0,0.9
		c0,0.231,0.088,0.461,0.264,0.636l2.559,2.56c0.351,0.352,0.921,0.352,1.272,0l2.56-2.56c0.352-0.351,0.352-0.92,0-1.272
		s-0.921-0.352-1.272,0L3.459,2.135L1.536,0.264z"/>
</g>
</svg>
