<?xml version="1.0" encoding="utf-8"?>
<!-- Generator: Adobe Illustrator 16.0.0, SVG Export Plug-In . SVG Version: 6.00 Build 0)  -->
<!DOCTYPE svg PUBLIC "-//W3C//DTD SVG 1.1//EN" "http://www.w3.org/Graphics/SVG/1.1/DTD/svg11.dtd">
<svg version="1.1" id="Layer_1" xmlns="http://www.w3.org/2000/svg" xmlns:xlink="http://www.w3.org/1999/xlink" x="0px" y="0px"
	 width="1024px" height="1024px" viewBox="0 0 1024 1024" enable-background="new 0 0 1024 1024" xml:space="preserve">
<path d="M23.534,550.471C15.845,542.758,12,531.224,12,523.534s3.845-19.224,11.534-26.913l53.85-53.85
	c15.39-15.391,38.458-15.391,53.849,0l3.845,3.845l211.542,226.932c7.689,7.689,19.224,7.689,26.925,0l515.378-534.625h3.846l0,0
	c15.378-15.379,38.47-15.379,53.849,0l53.85,53.85c15.379,15.378,15.379,38.458,0,53.849l0,0L385.078,885.078
	c-7.689,7.689-15.391,11.533-26.925,11.533s-19.235-3.845-26.925-11.533L31.235,562.005L23.534,550.471L23.534,550.471z"/>
</svg>
