<?xml version="1.0" encoding="utf-8"?>
<!-- Generator: Adobe Illustrator 16.0.0, SVG Export Plug-In . SVG Version: 6.00 Build 0)  -->
<!DOCTYPE svg PUBLIC "-//W3C//DTD SVG 1.1//EN" "http://www.w3.org/Graphics/SVG/1.1/DTD/svg11.dtd">
<svg version="1.1" id="Layer_1" xmlns="http://www.w3.org/2000/svg" xmlns:xlink="http://www.w3.org/1999/xlink" x="0px" y="0px"
	 width="1024px" height="1024px" viewBox="0 0 1024 1024" enable-background="new 0 0 1024 1024" xml:space="preserve">
<g>
	<rect x="39.009" y="348.545" fill-rule="evenodd" clip-rule="evenodd" width="204.484" height="644.521"/>
	<path fill-rule="evenodd" clip-rule="evenodd" d="M135.54,32.753c-75.883,0-125.31,51.073-123.761,119.083
		c-1.549,64.978,47.878,117.631,122.213,117.631c77.238,0,126.729-52.653,126.729-117.631
		C259.237,83.826,211.229,32.753,135.54,32.753z"/>
	<path fill-rule="evenodd" clip-rule="evenodd" d="M764.543,333.994c-114.405,0-201.774,108.404-201.774,108.404
		l0.646-93.854H350.735c1.42,62.333,1.936,644.521,1.936,644.521h218.357V621.33c0-18.391,2.903-38.135,8.582-50.072
		c14.066-36.909,49.427-75.109,108.662-75.109c77.69,0,108.792,56.718,108.792,139.7v357.218h214.679V610.813
		C1011.743,421.008,905.791,333.994,764.543,333.994z"/>
</g>
</svg>
